Data Processing & Investigation – Project 1 Site
…
Test query_pums() function

Without sub-setting the geography level, this function is time consuming to run.

query_pums(
  year = 2022,
  num_vars = c('AGEP', 'PWGTP', 'JWAP'),
  cat_vars = c('SEX', 'HISPEED'),
  geo_level = 'State',
  subset='18'
)

# A tibble: 69,843 × 6
    AGEP PWGTP JWAP     SEX   HISPEED state
   <dbl> <dbl> <chr>    <fct> <fct>   <chr>
 1    18    61 02:12 PM 2     0       18   
 2    69    83 <NA>     2     0       18   
 3    19    73 <NA>     1     0       18   
 4    18    65 <NA>     2     0       18   
 5    64    90 <NA>     2     0       18   
 6    45    71 <NA>     2     0       18   
 7    19    55 <NA>     1     0       18   
 8    20    64 07:52 PM 2     0       18   
 9    20    24 02:32 PM 1     0       18   
10    94    11 <NA>     2     0       18   
# ℹ 69,833 more rows
…
